{
  "runners": [
    {
      "name": "cmd",
      "code": "cmd /c"
    },
    {
      "name": "wt",
      "code": "wt cmd /k"
    }
  ],
  "scripts": [
    {
      "name": "notepad",
      "code": "notepad.exe",
      "runner": ""
    },
    {
      "name": "dir",
      "code": "dir",
      "runner": "cmd"
    },
    {
      "name": "dir json",
      "code": "dir workspaces\\*.json",
      "runner": "cmd"
    },
    {
      "name": "docker imgs",
      "code": "docker image ls",
      "runner": ""
    },
    {
      "name": "ping google",
      "code": "ping www.google.com",
      "runner": "wt"
    },
    {
      "name": "rust version",
      "code": "rustc --version",
      "runner": ""
    }
  ],
  "ideas": [
    {
      "name": "ToDo",
      "content": "Top Priority\n-Finish Important stuff"
    },
    {
      "name": "Important",
      "content": "Remember to fill ToDo list!"
    },
    {
      "name": "Lorem Ipsum",
      "content": "Lorem ipsum dolor sit amet, consectetur adipiscing elit. Nam nec est eu sem consequat porttitor eu ut urna. Nullam vel ipsum non sem blandit ultricies interdum semper orci. Ut vitae erat tellus. Vestibulum sed risus erat. Vivamus purus est, placerat vitae quam vitae, maximus ultricies justo. Donec et diam molestie, iaculis mauris in, viverra felis. Pellentesque metus quam, sagittis eget dictum non, sodales ut felis.\n\nAliquam sit amet erat quis est venenatis dictum ac id risus. Sed congue sem at tincidunt molestie. Fusce sit amet ante mi. Nullam consequat, nisl rutrum tincidunt varius, eros ipsum congue dui, vel placerat massa risus in nulla. Aliquam aliquet dui non lorem porttitor porta. Sed ut tellus blandit, egestas urna quis, facilisis lacus. Proin tellus quam, auctor et diam vitae, cursus imperdiet magna. Vivamus aliquet lobortis eros.\n\nQuisque consectetur vehicula lectus ac fringilla. Aliquam eu urna sit amet leo luctus auctor at quis felis. In placerat eros ut arcu accumsan, eget pellentesque tellus molestie. In in sem mauris. Ut ultrices metus id libero dictum, eget suscipit arcu commodo. Curabitur massa ex, eleifend venenatis purus pharetra, bibendum volutpat elit. Integer a molestie mauris. Nunc rutrum interdum diam, quis bibendum nisi suscipit et.\n\nVivamus mi nunc, imperdiet non elit et, condimentum efficitur justo. Quisque elementum viverra neque, ac dictum nunc convallis vitae. Nunc mollis dui non nisl vestibulum, vel ullamcorper lectus congue. Quisque volutpat nibh metus, id fringilla nunc sagittis non. Fusce ut libero metus. Suspendisse blandit neque et erat egestas, sed malesuada eros facilisis. Proin hendrerit id dui in pretium. Pellentesque efficitur dolor in ligula vehicula viverra. Praesent lacinia ante volutpat dolor faucibus auctor. Mauris venenatis molestie arcu, a posuere sem aliquet a. Duis fermentum lacus egestas tristique commodo. In lacus felis, dictum sed sem in, tempor eleifend felis.\n\nMorbi elementum aliquam metus, et pretium mi facilisis et. Proin purus leo, auctor a sem in, sagittis mollis lorem. Vivamus tristique, lorem ut pulvinar convallis, orci massa faucibus mi, at laoreet diam nisi in nisl. Donec mattis rhoncus lacinia. Vivamus sed congue elit, vitae laoreet ex. Aenean fermentum egestas leo, in congue lacus. Nam a vestibulum sapien, ut scelerisque turpis. Quisque nec finibus metus. Vestibulum fringilla neque eget pretium placerat. Mauris consequat enim at nibh euismod, sit amet luctus ipsum iaculis. Nullam fermentum blandit purus at vestibulum. Nulla facilisi. Pellentesque ac dolor dui. Suspendisse mollis tortor sit amet justo volutpat viverra. Nullam eu vestibulum erat, in euismod ex."
    }
  ]
}